Data de Abertura;Hora Abertura;Logradouro;Número;CEP;Prefeitura Regional;Distrito;Setor;Quadra;Órgão;Canal;Tema;Assunto;Serviço;Campos Formulário;Status da Solicitação;Data do Parecer;Hora do Parecer;Latitude;Longitude;Index;Cod_assunto;Caminho escolhas;Corredor;Código origem chamado;Código ponto parada;Código tipo linha;Código tipo ponto parada;Código veiculo;Data da ocorrência;Data fim operação;Hora da ocorrência;Linha;Placa;Prefixo;Sentido;Terminal
01/01/2015;11:41;AVENIDA AGUIA DE HAIA;3393;03694-000;ERMELINO MATARAZZO;PONTE RASA;;;SPTRANS;;Transporte;Conduta de trabalho do motorista, cobrador e fiscal de ônibus;Denúncia de conduta do motorista, cobrador ou fiscal;;FINALIZADO;14/01/2015;16:05;-23.5279234;-46.4742867;0;;;;;;;;;;;;;;;;
01/01/2015;12:37;ESITAPECERICA;6000;05835-000;M'BOI MIRIM;JARDIM SAO LUIS;;;SPTRANS;;Transporte;Conduta de trabalho do motorista, cobrador e fiscal de ônibus;Denúncia de conduta do motorista, cobrador ou fiscal;;FINALIZADO;21/01/2015;08:52;-23.6659863;-46.7831718;1;;;;;;;;;;;;;;;;
01/01/2015;14:01;CMA (ANH);0;;;;;;SPTRANS;;Transporte;Conduta de trabalho do motorista, cobrador e fiscal de ônibus;Denúncia de conduta do motorista, cobrador ou fiscal;;FINALIZADO;20/02/2015;08:23;0.0;0.0;2;;;;;;;;;;;;;;;;
01/01/2015;14:32;AVENIDA ADELIA CHOHFI;0;08320-390;SAO MATEUS;SAO MATEUS;152;162;SPTRANS;;Transporte;Conduta de trabalho do motorista, cobrador e fiscal de ônibus;Denúncia de conduta do motorista, cobrador ou fiscal;;FINALIZADO;14/01/2015;16:11;-23.6116241;-46.47624340000001;3;;;;;;;;;;;;;;;;
01/01/2015;15:28;;;;;;;;SPTRANS;;Transporte;Conduta de trabalho do motorista, cobrador e fiscal de ônibus;Denúncia de conduta do motorista, cobrador ou fiscal;;FINALIZADO;09/02/2015;16:17;0.0;0.0;4;;;;;;;;;;;;;;;;
01/01/2015;16:47;RUA JOAO CORREIA DE MAGALHAES;431;08151-260;ITAIM PAULISTA;VILA CURUCA;;;SPTRANS;;Transporte;Conduta de trabalho do motorista, cobrador e fiscal de ônibus;Denúncia de conduta do motorista, cobrador ou fiscal;;FINALIZADO;14/01/2015;16:11;-23.5216721;-46.4057798;5;;;;;;;;;;;;;;;;
01/01/2015;17:47;AVENIDA IBIRAPUERA;1252;04028-000;VILA MARIANA;MOEMA;041;290;SPTRANS;;Transporte;Conduta de trabalho do motorista, cobrador e fiscal de ônibus;Denúncia de conduta do motorista, cobrador ou fiscal;;FINALIZADO;20/01/2015;12:09;-23.597009;-46.6560941;6;;;;;;;;;;;;;;;;
01/01/2015;17:51;;;;;;;;SPTRANS;;Transporte;Conduta de trabalho do motorista, cobrador e fiscal de ônibus;Denúncia de conduta do motorista, cobrador ou fiscal;;FINALIZADO;21/01/2015;11:37;0.0;0.0;7;;;;;;;;;;;;;;;;
01/01/2015;18:37;ESIMPERADOR;200;08050-000;SAO MIGUEL;VILA JACUI;;;SPTRANS;;Transporte;Conduta de trabalho do motorista, cobrador e fiscal de ônibus;Denúncia de conduta do motorista, cobrador ou fiscal;;FINALIZADO;14/01/2015;16:11;0.0;0.0;8;;;;;;;;;;;;;;;;
01/01/2015;20:53;AVENIDA PIRES DO RIO;0;08020-000;SAO MIGUEL;SAO MIGUEL;;;SPTRANS;;Transporte;Conduta de trabalho do motorista, cobrador e fiscal de ônibus;Denúncia de conduta do motorista, cobrador ou fiscal;;FINALIZADO;29/01/2015;14:30;-23.4963161;-46.4420702;9;;;;;;;;;;;;;;;;
01/01/2015;20:54;PCAGUIM;50;03456-100;ARICANDUVA-FORMOSA-CARRAO;ARICANDUVA;;;SPTRANS;;Transporte;Conduta de trabalho do motorista, cobrador e fiscal de ônibus;Denúncia de conduta do motorista, cobrador ou fiscal;;FINALIZADO;12/02/2015;14:02;-23.5689499;-46.5082393;10;;;;;;;;;;;;;;;;
01/01/2015;21:31;RUA ACACCIO FONTOURA;153;04831-050;CAPELA DO SOCORRO;CIDADE DUTRA;177;019;SPTRANS;;Transporte;Conduta de trabalho do motorista, cobrador e fiscal de ônibus;Denúncia de conduta do motorista, cobrador ou fiscal;;FINALIZADO;13/01/2015;08:11;-23.7315999;-46.7157461;11;;;;;;;;;;;;;;;;
01/01/2015;22:07;;;;;;;;SPTRANS;;Transporte;Conduta de trabalho do motorista, cobrador e fiscal de ônibus;Denúncia de conduta do motorista, cobrador ou fiscal;;FINALIZADO;13/01/2015;08:12;0.0;0.0;12;;;;;;;;;;;;;;;;
02/01/2015;01:44;AVENIDA AMARO;1600;04505-000;PINHEIROS;ITAIM BIBI;;;SPTRANS;;Transporte;Conduta de trabalho do motorista, cobrador e fiscal de ônibus;Denúncia de conduta do motorista, cobrador ou fiscal;;FINALIZADO;21/01/2015;08:56;-23.5979498;-46.6738612;13;;;;;;;;;;;;;;;;
02/01/2015;08:02;AVENIDA VITAL BRASIL;4000;05503-001;BUTANTA;BUTANTA;082;517;SPTRANS;;Transporte;Conduta de trabalho do motorista, cobrador e fiscal de ônibus;Denúncia de conduta do motorista, cobrador ou fiscal;;FINALIZADO;22/01/2015;11:55;-23.569204;-46.7153771;14;;;;;;;;;;;;;;;;
02/01/2015;08:29;AVENIDA AURO SOARES DE MOURA ANDRADE;0;01155-080;SE;SANTA CECILIA;;;SPTRANS;;Transporte;Conduta de trabalho do motorista, cobrador e fiscal de ônibus;Denúncia de conduta do motorista, cobrador ou fiscal;;FINALIZADO;09/01/2015;09:32;-23.5291709;-46.6610305;15;;;;;;;;;;;;;;;;
02/01/2015;12:26;RUA ANTONIO MAXIMIANO DA SILVA;251;05885-170;CAMPO LIMPO;CAPAO REDONDO;167;042;SPTRANS;;Transporte;Conduta de trabalho do motorista, cobrador e fiscal de ônibus;Denúncia de conduta do motorista, cobrador ou fiscal;;FINALIZADO;22/01/2015;11:55;-23.6754841;-46.7864859;16;;;;;;;;;;;;;;;;
02/01/2015;13:00;AVENIDA ANTONELO DA MESSINA;3000;02318-000;JACANA-TREMEMBE;TREMEMBE;198;028;SPTRANS;;Transporte;Conduta de trabalho do motorista, cobrador e fiscal de ônibus;Denúncia de conduta do motorista, cobrador ou fiscal;;FINALIZADO;30/01/2015;09:00;0.0;0.0;17;;;;;;;;;;;;;;;;
02/01/2015;13:20;;;;;;;;SPTRANS;;Transporte;Conduta de trabalho do motorista, cobrador e fiscal de ônibus;Denúncia de conduta do motorista, cobrador ou fiscal;;FINALIZADO;09/02/2015;16:17;0.0;0.0;18;;;;;;;;;;;;;;;;
02/01/2015;13:30;AVENIDA GIOVANNI GRONCHI;7057;05724-002;CAMPO LIMPO;VILA ANDRADE;301;054;SPTRANS;;Transporte;Conduta de trabalho do motorista, cobrador e fiscal de ônibus;Denúncia de conduta do motorista, cobrador ou fiscal;;FINALIZADO;19/01/2015;12:47;-23.6413524;-46.7367894;19;;;;;;;;;;;;;;;;
