Tema;Assunto;Serviço;Total
Transporte;Conduta de trabalho do motorista, cobrador e fiscal de ônibus;Denúncia de alteração de itinerário ou ponto inicial/final;2983
Transporte;Conduta de trabalho do motorista, cobrador e fiscal de ônibus;Denúncia de conduta do motorista, cobrador ou fiscal;42117
Transporte;Conduta de trabalho do motorista, cobrador e fiscal de ônibus;Denúncia de direção inadequada ou perigosa de veículo;17677
Transporte;Conduta de trabalho do motorista, cobrador e fiscal de ônibus;Denúncia de problemas no embarque/desembarque;49792
Transporte;Conduta de trabalho do motorista, cobrador e fiscal de ônibus;Elogio ao motorista, cobrador ou fiscal;2328
Transporte;Linhas e itinerários de ônibus;Reclamação de demora na partida do ônibus;2302
Transporte;Linhas e itinerários de ônibus;Reclamação de descumprimento de partida no ponto inicial/final;10562
Transporte;Linhas e itinerários de ônibus;Reclamação de falta de comunicado nos ônibus;162
